{
    "name": "DroitAcces",
    "fields": [
        {
            "fieldName": "code",
            "fieldType": "String",
            "fieldValidateRules": [
                "required",
                "unique"
            ]
        },
        {
            "fieldName": "libelle",
            "fieldType": "String",
            "fieldValidateRules": [
                "required",
                "unique"
            ]
        }
    ],
    "relationships": [
        {
            "relationshipType": "one-to-many",
            "otherEntityName": "utilisateur",
            "otherEntityRelationshipName": "droitAcces",
            "relationshipName": "utilisateur"
        }
    ],
    "changelogDate": "20190531094443",
    "entityTableName": "droit_acces",
    "dto": "no",
    "pagination": "infinite-scroll",
    "service": "serviceClass",
    "jpaMetamodelFiltering": true,
    "fluentMethods": true,
    "clientRootFolder": "",
    "applications": "*",
    "searchEngine": "elasticsearch"
}