{
    "name": "Notification",
    "fields": [
        {
            "fieldName": "libelle",
            "fieldType": "String",
            "fieldValidateRules": [
                "required"
            ]
        },
        {
            "fieldName": "description",
            "fieldType": "String",
            "fieldValidateRules": [
                "required"
            ]
        },
        {
            "fieldName": "estOuvert",
            "fieldType": "Boolean",
            "fieldValidateRules": [
                "required"
            ]
        }
    ],
    "relationships": [
        {
            "relationshipType": "many-to-one",
            "otherEntityName": "utilisateur",
            "otherEntityRelationshipName": "notification",
            "relationshipName": "utilisateur",
            "otherEntityField": "id"
        }
    ],
    "changelogDate": "20190531094442",
    "entityTableName": "notification",
    "dto": "no",
    "pagination": "infinite-scroll",
    "service": "serviceClass",
    "jpaMetamodelFiltering": true,
    "fluentMethods": true,
    "clientRootFolder": "",
    "applications": "*",
    "searchEngine": "elasticsearch"
}