{
    "name": "Operateur",
    "fields": [
        {
            "fieldName": "operateur",
            "fieldType": "String",
            "fieldValidateRules": [
                "required",
                "unique"
            ]
        }
    ],
    "relationships": [
        {
            "relationshipType": "one-to-many",
            "otherEntityName": "clause",
            "otherEntityRelationshipName": "operateur",
            "relationshipName": "clause"
        }
    ],
    "changelogDate": "20190531094427",
    "entityTableName": "operateur",
    "dto": "no",
    "pagination": "infinite-scroll",
    "service": "serviceClass",
    "jpaMetamodelFiltering": true,
    "fluentMethods": true,
    "clientRootFolder": "",
    "applications": "*",
    "searchEngine": "elasticsearch"
}